…
``` r
constituents <- read_csv("data/constituents.csv", col_types = "dDcccccc") %>% 
  # Remove first column, which has the index
  select(-1)
```

    ## New names:
    ## * `` -> ...1

``` r
constituents
```

    ## # A tibble: 48,388 x 7
    ##    date       action     ticker name               contraticker contraname note 
    ##    <date>     <chr>      <chr>  <chr>              <chr>        <chr>      <chr>
    ##  1 2020-12-31 historical ZTS    Zoetis Inc         <NA>         <NA>       <NA> 
    ##  2 2020-12-31 current    ZTS    Zoetis Inc         <NA>         <NA>       <NA> 
    ##  3 2020-12-31 historical ZION   Zions Bancorporat~ <NA>         <NA>       <NA> 
    ##  4 2020-12-31 current    ZION   Zions Bancorporat~ <NA>         <NA>       <NA> 
    ##  5 2020-12-31 historical ZBRA   Zebra Technologie~ <NA>         <NA>       <NA> 
    ##  6 2020-12-31 current    ZBRA   Zebra Technologie~ <NA>         <NA>       <NA> 
    ##  7 2020-12-31 historical ZBH    Zimmer Biomet Hol~ <NA>         <NA>       <NA> 
    ##  8 2020-12-31 current    ZBH    Zimmer Biomet Hol~ <NA>         <NA>       <NA> 
    ##  9 2020-12-31 historical YUM    Yum Brands Inc     <NA>         <NA>       <NA> 
    ## 10 2020-12-31 current    YUM    Yum Brands Inc     <NA>         <NA>       <NA> 
    ## # ... with 48,378 more rows
…
    ## # A tibble: 2 x 1
    ##   action 
    ##   <chr>  
    ## 1 added  
    ## 2 removed

-   Inspect some rows where there are no missing values of either the `contraticker` or `contraname` variables.

``` r
constituents %>% 
  filter(!is.na(contraticker) | !is.na(contraname)) 
```

    ## # A tibble: 1,270 x 7
    ##    date       action  ticker name                  contraticker contraname note 
    ##    <date>     <chr>   <chr>  <chr>                 <chr>        <chr>      <chr>
    ##  1 2020-12-21 added   TSLA   Tesla Inc             AIV          Apartment~ <NA> 
    ##  2 2020-12-21 removed AIV    Apartment Investment~ TSLA         Tesla Inc  <NA> 
    ##  3 2020-10-12 added   VNT    Vontier Corp          NBL          Noble Ene~ <NA> 
    ##  4 2020-10-12 removed NBL    Noble Energy Inc      VNT          Vontier C~ <NA> 
    ##  5 2020-09-21 added   TER    Teradyne Inc          COTY         Coty Inc   <NA> 
    ##  6 2020-09-21 removed KSS    KOHLS Corp            CTLT         Catalent ~ <NA> 
    ##  7 2020-09-21 removed HRB    H&R Block Inc         ETSY         Etsy Inc   <NA> 
    ##  8 2020-09-21 added   ETSY   Etsy Inc              HRB          H&R Block~ <NA> 
    ##  9 2020-09-21 added   CTLT   Catalent Inc          KSS          KOHLS Corp <NA> 
    ## 10 2020-09-21 removed COTY   Coty Inc              TER          Teradyne ~ <NA> 
    ## # ... with 1,260 more rows

Indeed this is the case. We can see, for example, on the first row: TSLA is being added and replaced by AIV. On the next row we see the opposite operation: AIV is being removed and substituted by TSLA.

-   Another important check we must do is that there are no errors in the ticker-name relationship. That is, for every (ticker, name) pair there must be just one count per value-key pair.

We first get the count for each key-value pair:

``` r
constituents %>% distinct(ticker, name) %>% count(ticker, name, name = "count")
```

    ## # A tibble: 1,112 x 3
    ##    ticker name                        count
    ##    <chr>  <chr>                       <int>
    ##  1 A      Agilent Technologies Inc        1
    ##  2 AAL    American Airlines Group Inc     1
    ##  3 AAMRQ  Amr Corp                        1
    ##  4 AAP    Advance Auto Parts Inc          1
    ##  5 AAPL   Apple Inc                       1
    ##  6 ABBV   AbbVie Inc                      1
    ##  7 ABC    Amerisourcebergen Corp          1
    ##  8 ABI1   Applied Biosystems Inc          1
    ##  9 ABKFQ  Ambac Financial Group Inc       1
    ## 10 ABMD   Abiomed Inc                     1
    ## # ... with 1,102 more rows
…
Indeed, the only date where a *current* value appears is 2020-12-31

Let’s inspect the data for the first date `1957-03-04`:

``` r
constituents_ts %>% 
  filter(
    date == ymd("1957-03-04")
  )
```

    ## # A tibble: 97 x 18
    ##    date       action  ticker name        contraticker contraname note  date_year
    ##    <date>     <chr>   <chr>  <chr>       <chr>        <chr>      <chr>     <dbl>
    ##  1 1957-03-04 added   WWY    Wrigley Wm~ <NA>         <NA>       <NA>       1957
    ##  2 1957-03-04 added   WNDXQ  Winn Dixie~ <NA>         <NA>       <NA>       1957
    ##  3 1957-03-04 added   WLA    Warner Lam~ <NA>         <NA>       <NA>       1957
    ##  4 1957-03-04 added   WGL    Wgl Holdin~ <NA>         <NA>       <NA>       1957
    ##  5 1957-03-04 removed WAB    Westinghou~ GT           Goodyear ~ <NA>       1957
    ##  6 1957-03-04 added   VO1    Seagram Co~ <NA>         <NA>       <NA>       1957
    ##  7 1957-03-04 added   USG    Usg Corp    <NA>         <NA>       <NA>       1957
    ##  8 1957-03-04 added   UNP    Union Paci~ <NA>         <NA>       <NA>       1957
    ##  9 1957-03-04 added   UK1    Union Carb~ <NA>         <NA>       <NA>       1957
    ## 10 1957-03-04 added   UCC1   Union Camp~ <NA>         <NA>       <NA>       1957
    ## # ... with 87 more rows, and 10 more variables: date_half <int>,
    ## #   date_quarter <int>, date_month <dbl>, date_month_label <ord>,
    ## #   date_day <int>, date_wday <dbl>, date_wday_label <ord>, date_qday <dbl>,
    ## #   date_yday <dbl>, date_qid <fct>

It’s clear that we don’t have the initial S&P 500 sample, but we **could** reverse engineer the constituents at each date. Let’s start by the final date `2020-12-31`:

``` r
constituents %>% 
  filter(date == ymd("2020-12-31"))
```

    ## # A tibble: 1,010 x 7
    ##    date       action     ticker name               contraticker contraname note 
    ##    <date>     <chr>      <chr>  <chr>              <chr>        <chr>      <chr>
    ##  1 2020-12-31 historical ZTS    Zoetis Inc         <NA>         <NA>       <NA> 
    ##  2 2020-12-31 current    ZTS    Zoetis Inc         <NA>         <NA>       <NA> 
    ##  3 2020-12-31 historical ZION   Zions Bancorporat~ <NA>         <NA>       <NA> 
    ##  4 2020-12-31 current    ZION   Zions Bancorporat~ <NA>         <NA>       <NA> 
    ##  5 2020-12-31 historical ZBRA   Zebra Technologie~ <NA>         <NA>       <NA> 
    ##  6 2020-12-31 current    ZBRA   Zebra Technologie~ <NA>         <NA>       <NA> 
    ##  7 2020-12-31 historical ZBH    Zimmer Biomet Hol~ <NA>         <NA>       <NA> 
    ##  8 2020-12-31 current    ZBH    Zimmer Biomet Hol~ <NA>         <NA>       <NA> 
    ##  9 2020-12-31 historical YUM    Yum Brands Inc     <NA>         <NA>       <NA> 
    ## 10 2020-12-31 current    YUM    Yum Brands Inc     <NA>         <NA>       <NA> 
    ## # ... with 1,000 more rows
…
In order to get a better sense of what’s going on with the `action` column, we pivot the data to a *wide* format so we can clearly see the difference between each `action` value. By doing this, we can have a single column for each of the 4 unique values in the `action` variable.

``` r
constituents_wide <- constituents_ts %>% 
  pivot_wider(
    names_from = action,
    values_from = name
  ) %>% 
  relocate(historical, current, added, removed, .after = ticker)

constituents_wide
```

    ## # A tibble: 47,883 x 20
    ##    date       ticker historical    current added removed contraticker contraname
    ##    <date>     <chr>  <chr>         <chr>   <chr> <chr>   <chr>        <chr>     
    ##  1 2020-12-31 ZTS    Zoetis Inc    Zoetis~ <NA>  <NA>    <NA>         <NA>      
    ##  2 2020-12-31 ZION   Zions Bancor~ Zions ~ <NA>  <NA>    <NA>         <NA>      
    ##  3 2020-12-31 ZBRA   Zebra Techno~ Zebra ~ <NA>  <NA>    <NA>         <NA>      
    ##  4 2020-12-31 ZBH    Zimmer Biome~ Zimmer~ <NA>  <NA>    <NA>         <NA>      
    ##  5 2020-12-31 YUM    Yum Brands I~ Yum Br~ <NA>  <NA>    <NA>         <NA>      
    ##  6 2020-12-31 XYL    Xylem Inc     Xylem ~ <NA>  <NA>    <NA>         <NA>      
    ##  7 2020-12-31 XRX    Xerox Holdin~ Xerox ~ <NA>  <NA>    <NA>         <NA>      
    ##  8 2020-12-31 XRAY   DENTSPLY SIR~ DENTSP~ <NA>  <NA>    <NA>         <NA>      
    ##  9 2020-12-31 XOM    Exxon Mobil ~ Exxon ~ <NA>  <NA>    <NA>         <NA>      
    ## 10 2020-12-31 XLNX   Xilinx Inc    Xilinx~ <NA>  <NA>    <NA>         <NA>      
    ## # ... with 47,873 more rows, and 12 more variables: note <chr>,
    ## #   date_year <dbl>, date_half <int>, date_quarter <int>, date_month <dbl>,
    ## #   date_month_label <ord>, date_day <int>, date_wday <dbl>,
    ## #   date_wday_label <ord>, date_qday <dbl>, date_yday <dbl>, date_qid <fct>
…
This points to the fact that probably the `historical` value indicates the constituents per quarter on the S&P 500. We can further check the amount of `historical` values per quarter. The number should be around 500, of course.

``` r
constituents_wide %>% 
  select(date_year, date_qid, historical) %>% 
  filter(date_year > 2008, !is.na(historical)) %>% 
  group_by(date_year, date_qid) %>%  
  nest() %>% 
  mutate(constituent_count = map_int(data, nrow)) %>% 
  select(-data) %>% 
  print(n = 45)
```

    ## # A tibble: 48 x 3
    ## # Groups:   date_year, date_qid [48]
    ##    date_year date_qid constituent_count
    ##        <dbl> <fct>                <int>
    ##  1      2020 4Q20                   505
    ##  2      2020 3Q20                   505
    ##  3      2020 2Q20                   505
    ##  4      2020 1Q20                   505
    ##  5      2019 4Q19                   505
    ##  6      2019 3Q19                   505
    ##  7      2019 2Q19                   505
    ##  8      2019 1Q19                   505
    ##  9      2018 4Q18                   505
    ## 10      2018 3Q18                   505
    ## 11      2018 2Q18                   505
    ## 12      2018 1Q18                   505
    ## 13      2017 4Q17                   505
    ## 14      2017 3Q17                   505
    ## 15      2017 2Q17                   505
    ## 16      2017 1Q17                   505
    ## 17      2016 4Q16                   505
    ## 18      2016 3Q16                   505
    ## 19      2016 2Q16                   505
    ## 20      2016 1Q16                   504
    ## 21      2015 4Q15                   504
    ## 22      2015 3Q15                   505
    ## 23      2015 2Q15                   502
    ## 24      2015 1Q15                   502
    ## 25      2014 4Q14                   502
    ## 26      2014 3Q14                   502
    ## 27      2014 2Q14                   500
    ## 28      2014 1Q14                   500
    ## 29      2013 4Q13                   500
    ## 30      2013 3Q13                   500
    ## 31      2013 2Q13                   500
    ## 32      2013 1Q13                   500
    ## 33      2012 4Q12                   500
    ## 34      2012 3Q12                   500
    ## 35      2012 2Q12                   500
    ## 36      2012 1Q12                   500
    ## 37      2011 4Q11                   500
    ## 38      2011 3Q11                   500
    ## 39      2011 2Q11                   500
    ## 40      2011 1Q11                   500
    ## 41      2010 4Q10                   500
    ## 42      2010 3Q10                   500
    ## 43      2010 2Q10                   500
    ## 44      2010 1Q10                   494
    ## 45      2009 4Q09                   500
    ## # ... with 3 more rows
…
  # Nest the data
  nest(constituents = c(ticker, historical)) %>% 
  relocate(constituents, .after = 1) %>% 
  arrange(date) %>% 
  
  # Uncomment in case we want to get the number of constituents per date
  # mutate(constituent_count = map_int(constituents, nrow)) %>% 
  identity()

constituents_nested
```

    ## # A tibble: 48 x 2
    ##    date       constituents      
    ##    <date>     <list>            
    ##  1 2009-03-31 <tibble [500 x 2]>
    ##  2 2009-06-30 <tibble [500 x 2]>
    ##  3 2009-09-30 <tibble [500 x 2]>
    ##  4 2009-12-31 <tibble [500 x 2]>
    ##  5 2010-03-31 <tibble [494 x 2]>
    ##  6 2010-06-30 <tibble [500 x 2]>
    ##  7 2010-09-30 <tibble [500 x 2]>
    ##  8 2010-12-31 <tibble [500 x 2]>
    ##  9 2011-03-31 <tibble [500 x 2]>
    ## 10 2011-06-30 <tibble [500 x 2]>
    ## # ... with 38 more rows

We can now left_join the datasets:

``` r
constituents_nested <- required_dates %>% 
  left_join(constituents_nested, by = "date") %>% 
  fill(contains("constituent"), .direction = "up")

constituents_nested
```

    ## # A tibble: 3,028 x 2
    ##    date       constituents      
    ##    <date>     <list>            
    ##  1 2009-01-02 <tibble [500 x 2]>
    ##  2 2009-01-05 <tibble [500 x 2]>
    ##  3 2009-01-06 <tibble [500 x 2]>
    ##  4 2009-01-07 <tibble [500 x 2]>
    ##  5 2009-01-08 <tibble [500 x 2]>
    ##  6 2009-01-09 <tibble [500 x 2]>
    ##  7 2009-01-12 <tibble [500 x 2]>
    ##  8 2009-01-13 <tibble [500 x 2]>
    ##  9 2009-01-14 <tibble [500 x 2]>
    ## 10 2009-01-15 <tibble [500 x 2]>
    ## # ... with 3,018 more rows
…
    ## -- Column specification --------------------------------------------------------
    ## Delimiter: ","
    ## dbl  (1085): ...1, ZTS, ZION, ZBRA, ZBH, YUM, XYL, XRX, XRAY, XOM, XLNX, XEL...
    ## date    (1): date

    ## 
    ## i Use `spec()` to retrieve the full column specification for this data.
    ## i Specify the column types or set `show_col_types = FALSE` to quiet this message.

``` r
close_tbl
```

    ## # A tibble: 5,796 x 1,085
    ##    date         ZTS  ZION  ZBRA   ZBH   YUM   XYL   XRX  XRAY   XOM  XLNX   XEL
    ##    <date>     <dbl> <dbl> <dbl> <dbl> <dbl> <dbl> <dbl> <dbl> <dbl> <dbl> <dbl>
    ##  1 1997-12-31  31.0  45.4  13.2  29.8  7.26  24.2  148. 10.2   30.6  8.76  29.1
    ##  2 1998-01-02  31.0  45.5  13.2  29.8  7.28  24.2  150.  9.92  30.9  9.66  28.9
    ##  3 1998-01-05  31.0  46.4  13.1  29.8  7.06  24.2  152.  9.54  30.6  9.44  28.7
    ##  4 1998-01-06  31.0  45.6  13.1  29.8  6.76  24.2  151.  9.71  29.5  9.35  28.3
    ##  5 1998-01-07  31.0  44.9  13.0  29.8  6.75  24.2  145.  9.54  30.4  8.95  28  
    ##  6 1998-01-08  31.0  41.5  13    29.8  6.48  24.2  142.  9.48  29.8  9.03  28.1
    ##  7 1998-01-09  31.0  39.6  11.8  29.8  6.5   24.2  137.  9.02  29.1  8.66  27.8
    ##  8 1998-01-12  31.0  40.5  11.8  29.8  6.53  24.2  137.  9     29.4  8.52  28.0
    ##  9 1998-01-13  31.0  40.8  12.3  29.8  6.53  24.2  141.  9.17  30.0  9.31  28.0
    ## 10 1998-01-14  31.0  42.2  11.6  29.8  6.53  24.2  142.  9.29  30.4  9.22  27.9
    ## # ... with 5,786 more rows, and 1,073 more variables: WYNN <dbl>, WY <dbl>,
    ## #   WU <dbl>, WST <dbl>, WRK <dbl>, WRB <dbl>, WMT <dbl>, WMB <dbl>, WM <dbl>,
    ## #   WLTW <dbl>, WHR <dbl>, WFC <dbl>, WELL <dbl>, WEC <dbl>, WDC <dbl>,
    ## #   WBA <dbl>, WAT <dbl>, WAB <dbl>, VZ <dbl>, VTRS <dbl>, VTR <dbl>,
    ## #   VRTX <dbl>, VRSN <dbl>, VRSK <dbl>, VNT <dbl>, VNO <dbl>, VMC <dbl>,
    ## #   VLO <dbl>, VIAC <dbl>, VFC <dbl>, VAR <dbl>, V <dbl>, USB <dbl>, URI <dbl>,
    ## #   UPS <dbl>, UNP <dbl>, UNM <dbl>, UNH <dbl>, ULTA <dbl>, UHS <dbl>, ...
…
  # Add the returns
  mutate(
    across(
      .cols = -c(date, contains("ROC")),
      .fns = ~ (.x / lag(.x)) - 1,
      .names = "return_{.col}"
    )
  )

roc_close
```

    ## # A tibble: 5,596 x 3,253
    ##    date       ROC_ZTS ROC_ZION ROC_ZBRA ROC_ZBH ROC_YUM ROC_XYL ROC_XRX ROC_XRAY
    ##    <date>       <dbl>    <dbl>    <dbl>   <dbl>   <dbl>   <dbl>   <dbl>    <dbl>
    ##  1 1998-10-16       0     3.02   10.3         0    37.9       0    29.4    -32.0
    ##  2 1998-10-19       0     5.91   10.1         0    45.7       0    28.2    -27.7
    ##  3 1998-10-20       0     7.93    8.90        0    58.0       0    26.8    -23.6
    ##  4 1998-10-21       0     9.86   13.6         0    63.1       0    24.2    -23.4
    ##  5 1998-10-22       0    11.3     2.35        0    62.0       0    28.4    -21.0
    ##  6 1998-10-23       0    20.5     0.446       0    71.5       0    32.2    -19.5
    ##  7 1998-10-26       0    29.1     7.96        0    68.8       0    40.8    -13.9
    ##  8 1998-10-27       0    27.5    10.1         0    68.4       0    42.7    -10.6
    ##  9 1998-10-28       0    26.7     5.43        0    66.5       0    34.9    -10.9
    ## 10 1998-10-29       0    22.2    19.6         0    64.8       0    34.0    -10.3
    ## # ... with 5,586 more rows, and 3,244 more variables: ROC_XOM <dbl>,
    ## #   ROC_XLNX <dbl>, ROC_XEL <dbl>, ROC_WYNN <dbl>, ROC_WY <dbl>, ROC_WU <dbl>,
    ## #   ROC_WST <dbl>, ROC_WRK <dbl>, ROC_WRB <dbl>, ROC_WMT <dbl>, ROC_WMB <dbl>,
    ## #   ROC_WM <dbl>, ROC_WLTW <dbl>, ROC_WHR <dbl>, ROC_WFC <dbl>, ROC_WELL <dbl>,
    ## #   ROC_WEC <dbl>, ROC_WDC <dbl>, ROC_WBA <dbl>, ROC_WAT <dbl>, ROC_WAB <dbl>,
    ## #   ROC_VZ <dbl>, ROC_VTRS <dbl>, ROC_VTR <dbl>, ROC_VRTX <dbl>,
    ## #   ROC_VRSN <dbl>, ROC_VRSK <dbl>, ROC_VNT <dbl>, ROC_VNO <dbl>, ...
…
roc_long
```

    ## # A tibble: 3,282,352 x 4
    ##    date       ticker    roc data_type
    ##    <date>     <chr>   <dbl> <chr>    
    ##  1 2009-01-02 ZTS      0    ROC      
    ##  2 2009-01-02 ZION   -47.2  ROC      
    ##  3 2009-01-02 ZBRA   -36.7  ROC      
    ##  4 2009-01-02 ZBH    -44.7  ROC      
    ##  5 2009-01-02 YUM    -11.6  ROC      
    ##  6 2009-01-02 XYL      0    ROC      
    ##  7 2009-01-02 XRX    -43.7  ROC      
    ##  8 2009-01-02 XRAY   -19.7  ROC      
    ##  9 2009-01-02 XOM     -3.30 ROC      
    ## 10 2009-01-02 XLNX   -22.5  ROC      
    ## # ... with 3,282,342 more rows
…
close_long
```

    ## # A tibble: 3,282,352 x 4
    ##    date       ticker price data_type
    ##    <date>     <chr>  <dbl> <chr>    
    ##  1 2009-01-02 ZTS     31.0 close    
    ##  2 2009-01-02 ZION    25   close    
    ##  3 2009-01-02 ZBRA    21.0 close    
    ##  4 2009-01-02 ZBH     41.8 close    
    ##  5 2009-01-02 YUM     32   close    
    ##  6 2009-01-02 XYL     24.2 close    
    ##  7 2009-01-02 XRX     33.5 close    
    ##  8 2009-01-02 XRAY    29.1 close    
    ##  9 2009-01-02 XOM     81.6 close    
    ## 10 2009-01-02 XLNX    18.4 close    
    ## # ... with 3,282,342 more rows
…
returns_long
```

    ## # A tibble: 3,282,352 x 4
    ##    date       ticker return data_type
    ##    <date>     <chr>   <dbl> <chr>    
    ##  1 2009-01-02 ZTS    0      return   
    ##  2 2009-01-02 ZION   0.0200 return   
    ##  3 2009-01-02 ZBRA   0.0380 return   
    ##  4 2009-01-02 ZBH    0.0332 return   
    ##  5 2009-01-02 YUM    0.0159 return   
    ##  6 2009-01-02 XYL    0      return   
    ##  7 2009-01-02 XRX    0.0514 return   
    ##  8 2009-01-02 XRAY   0.0308 return   
    ##  9 2009-01-02 XOM    0.0227 return   
    ## 10 2009-01-02 XLNX   0.0303 return   
    ## # ... with 3,282,342 more rows

We now nest the three dataframes so we have a similar structure to the `constituents` data.

``` r
roc_nested <- roc_long %>% 
  nest(rocs = c(ticker, roc, data_type))
  
roc_nested
```

    ## # A tibble: 3,028 x 2
    ##    date       rocs                
    ##    <date>     <list>              
    ##  1 2009-01-02 <tibble [1,084 x 3]>
    ##  2 2009-01-05 <tibble [1,084 x 3]>
    ##  3 2009-01-06 <tibble [1,084 x 3]>
    ##  4 2009-01-07 <tibble [1,084 x 3]>
    ##  5 2009-01-08 <tibble [1,084 x 3]>
    ##  6 2009-01-09 <tibble [1,084 x 3]>
    ##  7 2009-01-12 <tibble [1,084 x 3]>
    ##  8 2009-01-13 <tibble [1,084 x 3]>
    ##  9 2009-01-14 <tibble [1,084 x 3]>
    ## 10 2009-01-15 <tibble [1,084 x 3]>
    ## # ... with 3,018 more rows
…
